examples/files/LFSR16.vcd
$version Generated by VerilatedVcd $end
$date Wed Jul 21 22:32:09 2021
 $end
$timescale 1ns $end

 $scope module TOP $end
  $var wire  1 $ clock $end
  $var wire  1 & io_inc $end
  $var wire  6 ) io_mod [5:0] $end
  $var wire 16 ( io_out [15:0] $end
  $var wire  1 * io_prb $end
  $var wire  6 ' io_thr [5:0] $end
  $var wire  1 % reset $end
  $scope module v $end
   $var wire  1 $ clock $end
   $var wire  1 & io_inc $end
   $var wire  6 ) io_mod [5:0] $end
   $var wire 16 ( io_out [15:0] $end
   $var wire  1 * io_prb $end
   $var wire  6 ' io_thr [5:0] $end
   $var wire 16 # res [15:0] $end
   $var wire  1 % reset $end
  $upscope $end
 $upscope $end
$enddefinitions $end


#0
b0000000000000000 #
0$
1%
0&
b000000 '
b0000000000000000 (
b000000 )
0*
#1
b0000000000000001 #
1$
b0000000000000001 (
b000001 )
#2
0$
#3
1$
#4
0$
#5
1$
#6
0$
#7
1$
#8
0$
#9
1$
#10
0$
0%
1&
b001000 '
1*
#11
b1000000000000000 #
1$
b1000000000000000 (
b000000 )
#12
0$
#13
b0100000000000000 #
1$
b0100000000000000 (
#14
0$
#15
b0010000000000000 #
1$
b0010000000000000 (
#16
0$
#17
b0001000000000000 #
1$
b0001000000000000 (
#18
0$
#19
b0000100000000000 #
1$
b0000100000000000 (
#20
0$
#21
b0000010000000000 #
1$
b0000010000000000 (
#22
0$
#23
b0000001000000000 #
1$
b0000001000000000 (
#24
0$
#25
b0000000100000000 #
1$
b0000000100000000 (
#26
0$
#27
b0000000010000000 #
1$
b0000000010000000 (
#28
0$
#29
b0000000001000000 #
1$
b0000000001000000 (
#30
0$
#31
b0000000000100000 #
1$
b0000000000100000 (
b100000 )
0*
#32
0$
#33
b1000000000010000 #
1$
b1000000000010000 (
b010000 )
#34
0$
#35
b0100000000001000 #
1$
b0100000000001000 (
b001000 )
#36
0$
#37
b1010000000000100 #
1$
b1010000000000100 (
b000100 )
1*
#38
0$
#39
b1101000000000010 #
1$
b1101000000000010 (
b000010 )
#40
0$
#41
b0110100000000001 #
1$
b0110100000000001 (
b000001 )
#42
0$
#43
b1011010000000000 #
1$
b1011010000000000 (
b000000 )
#44
0$
#45
b0101101000000000 #
1$
b0101101000000000 (
#46
0$
#47
b0010110100000000 #
1$
b0010110100000000 (
#48
0$
#49
b0001011010000000 #
1$
b0001011010000000 (
#50
0$
#51
b0000101101000000 #
1$
b0000101101000000 (
#52
0$
#53
b0000010110100000 #
1$
b0000010110100000 (
b100000 )
0*
#54
0$
#55
b1000001011010000 #
1$
b1000001011010000 (
b010000 )
#56
0$
#57
b0100000101101000 #
1$
b0100000101101000 (
b101000 )
#58
0$
#59
b0010000010110100 #
1$
b0010000010110100 (
b110100 )
#60
0$
#61
b0001000001011010 #
1$
b0001000001011010 (
b011010 )
#62
0$
#63
b1000100000101101 #
1$
b1000100000101101 (
b101101 )
#64
0$
#65
b0100010000010110 #
1$
b0100010000010110 (
b010110 )
#66
0$
#67
b1010001000001011 #
1$
b1010001000001011 (
b001011 )
#68
0$
#69
b0101000100000101 #
1$
b0101000100000101 (
b000101 )
1*
#70
0$
#71
b0010100010000010 #
1$
b0010100010000010 (
b000010 )
#72
0$
#73
b0001010001000001 #
1$
b0001010001000001 (
b000001 )
#74
0$
#75
b1000101000100000 #
1$
b1000101000100000 (
b100000 )
0*
#76
0$
#77
b1100010100010000 #
1$
b1100010100010000 (
b010000 )
#78
0$
#79
b0110001010001000 #
1$
b0110001010001000 (
b001000 )
#80
0$
#81
b1011000101000100 #
1$
b1011000101000100 (
b000100 )
1*
#82
0$
#83
b1101100010100010 #
1$
b1101100010100010 (
b100010 )
0*
#84
0$
#85
b1110110001010001 #
1$
b1110110001010001 (
b010001 )
#86
0$
#87
b1111011000101000 #
1$
b1111011000101000 (
b101000 )
#88
0$
#89
b0111101100010100 #
1$
b0111101100010100 (
b010100 )
#90
0$
#91
b1011110110001010 #
1$
b1011110110001010 (
b001010 )
#92
0$
#93
b1101111011000101 #
1$
b1101111011000101 (
b000101 )
1*
#94
0$
#95
b0110111101100010 #
1$
b0110111101100010 (
b100010 )
0*
#96
0$
#97
b1011011110110001 #
1$
b1011011110110001 (
b110001 )
#98
0$
#99
b0101101111011000 #
1$
b0101101111011000 (
b011000 )
#100
0$
#101
b1010110111101100 #
1$
b1010110111101100 (
b101100 )
#102
0$
#103
b1101011011110110 #
1$
b1101011011110110 (
b110110 )
#104
0$
#105
b0110101101111011 #
1$
b0110101101111011 (
b111011 )
#106
0$
#107
b1011010110111101 #
1$
b1011010110111101 (
b111101 )
#108
0$
#109
b0101101011011110 #
1$
b0101101011011110 (
b011110 )
#110
0$
#111
b0010110101101111 #
1$
b0010110101101111 (
b101111 )
#112
0$
#113
b0001011010110111 #
1$
b0001011010110111 (
b110111 )
#114
0$
#115
b1000101101011011 #
1$
b1000101101011011 (
b011011 )
#116
0$
#117
b0100010110101101 #
1$
b0100010110101101 (
b101101 )
#118
0$
#119
b0010001011010110 #
1$
b0010001011010110 (
b010110 )
#120
0$
#121
b1001000101101011 #
1$
b1001000101101011 (
b101011 )
#122
0$
#123
b1100100010110101 #
1$
b1100100010110101 (
b110101 )
#124
0$
#125
b1110010001011010 #
1$
b1110010001011010 (
b011010 )
#126
0$
#127
b1111001000101101 #
1$
b1111001000101101 (
b101101 )
#128
0$
#129
b0111100100010110 #
1$
b0111100100010110 (
b010110 )
#130
0$
#131
b1011110010001011 #
1$
b1011110010001011 (
b001011 )
#132
0$
#133
b0101111001000101 #
1$
b0101111001000101 (
b000101 )
1*
#134
0$
#135
b0010111100100010 #
1$
b0010111100100010 (
b100010 )
0*
#136
0$
#137
b1001011110010001 #
1$
b1001011110010001 (
b010001 )
#138
0$
#139
b1100101111001000 #
1$
b1100101111001000 (
b001000 )
#140
0$
#141
b1110010111100100 #
1$
b1110010111100100 (
b100100 )
#142
0$
#143
b0111001011110010 #
1$
b0111001011110010 (
b110010 )
#144
0$
#145
b1011100101111001 #
1$
b1011100101111001 (
b111001 )
#146
0$
#147
b1101110010111100 #
1$
b1101110010111100 (
b111100 )
#148
0$
#149
b1110111001011110 #
1$
b1110111001011110 (
b011110 )
#150
0$
#151
b0111011100101111 #
1$
b0111011100101111 (
b101111 )
#152
0$
#153
b0011101110010111 #
1$
b0011101110010111 (
b010111 )
#154
0$
#155
b0001110111001011 #
1$
b0001110111001011 (
b001011 )
#156
0$
#157
b0000111011100101 #
1$
b0000111011100101 (
b100101 )
#158
0$
#159
b1000011101110010 #
1$
b1000011101110010 (
b110010 )
#160
0$
#161
b1100001110111001 #
1$
b1100001110111001 (
b111001 )
#162
0$
#163
b1110000111011100 #
1$
b1110000111011100 (
b011100 )
#164
0$
#165
b0111000011101110 #
1$
b0111000011101110 (
b101110 )
#166
0$
#167
b1011100001110111 #
1$
b1011100001110111 (
b110111 )
#168
0$
#169
b1101110000111011 #
1$
b1101110000111011 (
b111011 )
#170
0$
#171
b1110111000011101 #
1$
b1110111000011101 (
b011101 )
#172
0$
#173
b1111011100001110 #
1$
b1111011100001110 (
b001110 )
#174
0$
#175
b0111101110000111 #
1$
b0111101110000111 (
b000111 )
1*
#176
0$
#177
b0011110111000011 #
1$
b0011110111000011 (
b000011 )
#178
0$
#179
b1001111011100001 #
1$
b1001111011100001 (
b100001 )
0*
#180
0$
#181
b0100111101110000 #
1$
b0100111101110000 (
b110000 )
#182
0$
#183
b1010011110111000 #
1$
b1010011110111000 (
b111000 )
#184
0$
#185
b0101001111011100 #
1$
b0101001111011100 (
b011100 )
#186
0$
#187
b0010100111101110 #
1$
b0010100111101110 (
b101110 )
#188
0$
#189
b1001010011110111 #
1$
b1001010011110111 (
b110111 )
#190
0$
#191
b1100101001111011 #
1$
b1100101001111011 (
b111011 )
#192
0$
#193
b1110010100111101 #
1$
b1110010100111101 (
b111101 )
#194
0$
#195
b0111001010011110 #
1$
b0111001010011110 (
b011110 )
#196
0$
#197
b0011100101001111 #
1$
b0011100101001111 (
b001111 )
#198
0$
#199
b1001110010100111 #
1$
b1001110010100111 (
b100111 )
#200
0$
#201
b1100111001010011 #
1$
b1100111001010011 (
b010011 )
#202
0$
#203
b1110011100101001 #
1$
b1110011100101001 (
b101001 )
#204
0$
#205
b1111001110010100 #
1$
b1111001110010100 (
b010100 )
#206
0$
#207
b1111100111001010 #
1$
b1111100111001010 (
b001010 )
#208
0$
#209
b1111110011100101 #
1$
b1111110011100101 (
b100101 )
#210
0$
#211
b1111111001110010 #
1$
b1111111001110010 (
b110010 )
#212
0$
#213
b1111111100111001 #
1$
b1111111100111001 (
b111001 )
#214
0$
#215
b1111111110011100 #
1$
b1111111110011100 (
b011100 )
#216
0$
#217
b0111111111001110 #
1$
b0111111111001110 (
b001110 )
#218
0$
#219
b0011111111100111 #
1$
b0011111111100111 (
b100111 )
#220
0$
#221
b1001111111110011 #
1$
b1001111111110011 (
b110011 )
#222
0$
#223
b0100111111111001 #
1$
b0100111111111001 (
b111001 )
#224
0$
#225
b1010011111111100 #
1$
b1010011111111100 (
b111100 )
#226
0$
#227
b1101001111111110 #
1$
b1101001111111110 (
b111110 )
#228
0$
#229
b1110100111111111 #
1$
b1110100111111111 (
b111111 )
#230
0$
#231
b0111010011111111 #
1$
b0111010011111111 (
#232
0$
#233
b0011101001111111 #
1$
b0011101001111111 (
#234
0$
#235
b0001110100111111 #
1$
b0001110100111111 (
#236
0$
#237
b0000111010011111 #
1$
b0000111010011111 (
b011111 )
#238
0$
#239
b1000011101001111 #
1$
b1000011101001111 (
b001111 )
#240
0$
#241
b1100001110100111 #
1$
b1100001110100111 (
b100111 )
#242
0$
#243
b1110000111010011 #
1$
b1110000111010011 (
b010011 )
#244
0$
#245
b1111000011101001 #
1$
b1111000011101001 (
b101001 )
#246
0$
#247
b1111100001110100 #
1$
b1111100001110100 (
b110100 )
#248
0$
#249
b0111110000111010 #
1$
b0111110000111010 (
b111010 )
#250
0$
#251
b0011111000011101 #
1$
b0011111000011101 (
b011101 )
#252
0$
#253
b1001111100001110 #
1$
b1001111100001110 (
b001110 )
#254
0$
#255
b0100111110000111 #
1$
b0100111110000111 (
b000111 )
1*
#256
0$
#257
b0010011111000011 #
1$
b0010011111000011 (
b000011 )
#258
0$
#259
b1001001111100001 #
1$
b1001001111100001 (
b100001 )
0*
#260
0$
#261
b0100100111110000 #
1$
b0100100111110000 (
b110000 )
#262
0$
#263
b1010010011111000 #
1$
b1010010011111000 (
b111000 )
#264
0$
#265
b0101001001111100 #
1$
b0101001001111100 (
b111100 )
#266
0$
#267
b1010100100111110 #
1$
b1010100100111110 (
b111110 )
#268
0$
#269
b1101010010011111 #
1$
b1101010010011111 (
b011111 )
#270
0$
#271
b1110101001001111 #
1$
b1110101001001111 (
b001111 )
#272
0$
#273
b1111010100100111 #
1$
b1111010100100111 (
b100111 )
#274
0$
#275
b1111101010010011 #
1$
b1111101010010011 (
b010011 )
#276
0$
#277
b1111110101001001 #
1$
b1111110101001001 (
b001001 )
#278
0$
#279
b0111111010100100 #
1$
b0111111010100100 (
b100100 )
#280
0$
#281
b0011111101010010 #
1$
b0011111101010010 (
b010010 )
#282
0$
#283
b0001111110101001 #
1$
b0001111110101001 (
b101001 )
#284
0$
#285
b1000111111010100 #
1$
b1000111111010100 (
b010100 )
#286
0$
#287
b1100011111101010 #
1$
b1100011111101010 (
b101010 )
#288
0$
#289
b0110001111110101 #
1$
b0110001111110101 (
b110101 )
#290
0$
#291
b1011000111111010 #
1$
b1011000111111010 (
b111010 )
#292
0$
#293
b0101100011111101 #
1$
b0101100011111101 (
b111101 )
#294
0$
#295
b0010110001111110 #
1$
b0010110001111110 (
b111110 )
#296
0$
#297
b1001011000111111 #
1$
b1001011000111111 (
b111111 )
#298
0$
#299
b0100101100011111 #
1$
b0100101100011111 (
b011111 )
#300
0$
#301
b1010010110001111 #
1$
b1010010110001111 (
b001111 )
#302
0$
#303
b1101001011000111 #
1$
b1101001011000111 (
b000111 )
1*
#304
0$
#305
b0110100101100011 #
1$
b0110100101100011 (
b100011 )
0*
#306
0$
#307
b0011010010110001 #
1$
b0011010010110001 (
b110001 )
#308
0$
#309
b0001101001011000 #
1$
b0001101001011000 (
b011000 )
#310
0$
#311
b1000110100101100 #
1$
b1000110100101100 (
b101100 )
#312
0$
#313
b1100011010010110 #
1$
b1100011010010110 (
b010110 )
#314
0$
#315
b1110001101001011 #
1$
b1110001101001011 (
b001011 )
#316
0$
#317
b0111000110100101 #
1$
b0111000110100101 (
b100101 )
#318
0$
#319
b1011100011010010 #
1$
b1011100011010010 (
b010010 )
#320
0$
#321
b0101110001101001 #
1$
b0101110001101001 (
b101001 )
#322
0$
#323
b1010111000110100 #
1$
b1010111000110100 (
b110100 )
#324
0$
#325
b0101011100011010 #
1$
b0101011100011010 (
b011010 )
#326
0$
#327
b1010101110001101 #
1$
b1010101110001101 (
b001101 )
#328
0$
#329
b1101010111000110 #
1$
b1101010111000110 (
b000110 )
1*
#330
0$
#331
b1110101011100011 #
1$
b1110101011100011 (
b100011 )
0*
#332
0$
#333
b0111010101110001 #
1$
b0111010101110001 (
b110001 )
#334
0$
#335
b0011101010111000 #
1$
b0011101010111000 (
b111000 )
#336
0$
#337
b0001110101011100 #
1$
b0001110101011100 (
b011100 )
#338
0$
#339
b0000111010101110 #
1$
b0000111010101110 (
b101110 )
#340
0$
#341
b1000011101010111 #
1$
b1000011101010111 (
b010111 )
#342
0$
#343
b0100001110101011 #
1$
b0100001110101011 (
b101011 )
#344
0$
#345
b1010000111010101 #
1$
b1010000111010101 (
b010101 )
#346
0$
#347
b0101000011101010 #
1$
b0101000011101010 (
b101010 )
#348
0$
#349
b0010100001110101 #
1$
b0010100001110101 (
b110101 )
#350
0$
#351
b1001010000111010 #
1$
b1001010000111010 (
b111010 )
#352
0$
#353
b0100101000011101 #
1$
b0100101000011101 (
b011101 )
#354
0$
#355
b1010010100001110 #
1$
b1010010100001110 (
b001110 )
#356
0$
#357
b0101001010000111 #
1$
b0101001010000111 (
b000111 )
1*
#358
0$
#359
b0010100101000011 #
1$
b0010100101000011 (
b000011 )
#360
0$
#361
b1001010010100001 #
1$
b1001010010100001 (
b100001 )
0*
#362
0$
#363
b0100101001010000 #
1$
b0100101001010000 (
b010000 )
#364
0$
#365
b0010010100101000 #
1$
b0010010100101000 (
b101000 )
#366
0$
#367
b0001001010010100 #
1$
b0001001010010100 (
b010100 )
#368
0$
#369
b1000100101001010 #
1$
b1000100101001010 (
b001010 )
#370
0$
#371
b1100010010100101 #
1$
b1100010010100101 (
b100101 )
#372
0$
#373
b1110001001010010 #
1$
b1110001001010010 (
b010010 )
#374
0$
#375
b0111000100101001 #
1$
b0111000100101001 (
b101001 )
#376
0$
#377
b1011100010010100 #
1$
b1011100010010100 (
b010100 )
#378
0$
#379
b1101110001001010 #
1$
b1101110001001010 (
b001010 )
#380
0$
#381
b1110111000100101 #
1$
b1110111000100101 (
b100101 )
#382
0$
#383
b1111011100010010 #
1$
b1111011100010010 (
b010010 )
#384
0$
#385
b0111101110001001 #
1$
b0111101110001001 (
b001001 )
#386
0$
#387
b0011110111000100 #
1$
b0011110111000100 (
b000100 )
1*
#388
0$
#389
b1001111011100010 #
1$
b1001111011100010 (
b100010 )
0*
#390
0$
#391
b1100111101110001 #
1$
b1100111101110001 (
b110001 )
#392
0$
#393
b0110011110111000 #
1$
b0110011110111000 (
b111000 )
#394
0$
#395
b0011001111011100 #
1$
b0011001111011100 (
b011100 )
#396
0$
#397
b0001100111101110 #
1$
b0001100111101110 (
b101110 )
#398
0$
#399
b1000110011110111 #
1$
b1000110011110111 (
b110111 )
#400
0$
#401
b1100011001111011 #
1$
b1100011001111011 (
b111011 )
#402
0$
#403
b1110001100111101 #
1$
b1110001100111101 (
b111101 )
#404
0$
#405
b0111000110011110 #
1$
b0111000110011110 (
b011110 )
#406
0$
#407
b0011100011001111 #
1$
b0011100011001111 (
b001111 )
#408
0$
#409
b1001110001100111 #
1$
b1001110001100111 (
b100111 )
#410
0$
#411
b1100111000110011 #
1$
b1100111000110011 (
b110011 )
#412
0$
#413
b0110011100011001 #
1$
b0110011100011001 (
b011001 )
#414
0$
#415
b0011001110001100 #
1$
b0011001110001100 (
b001100 )
#416
0$
#417
b0001100111000110 #
1$
b0001100111000110 (
b000110 )
1*
#418
0$
#419
b1000110011100011 #
1$
b1000110011100011 (
b100011 )
0*
#420
0$
#421
b0100011001110001 #
1$
b0100011001110001 (
b110001 )
#422
0$
#423
b0010001100111000 #
1$
b0010001100111000 (
b111000 )
#424
0$
#425
b0001000110011100 #
1$
b0001000110011100 (
b011100 )
#426
0$
#427
b0000100011001110 #
1$
b0000100011001110 (
b001110 )
#428
0$
#429
b0000010001100111 #
1$
b0000010001100111 (
b100111 )
#430
0$
#431
b1000001000110011 #
1$
b1000001000110011 (
b110011 )
#432
0$
#433
b0100000100011001 #
1$
b0100000100011001 (
b011001 )
#434
0$
#435
b0010000010001100 #
1$
b0010000010001100 (
b001100 )
#436
0$
#437
b0001000001000110 #
1$
b0001000001000110 (
b000110 )
1*
#438
0$
#439
b1000100000100011 #
1$
b1000100000100011 (
b100011 )
0*
#440
0$
#441
b0100010000010001 #
1$
b0100010000010001 (
b010001 )
#442
0$
#443
b1010001000001000 #
1$
b1010001000001000 (
b001000 )
#444
0$
#445
b1101000100000100 #
1$
b1101000100000100 (
b000100 )
1*
#446
0$
#447
b1110100010000010 #
1$
b1110100010000010 (
b000010 )
#448
0$
#449
b0111010001000001 #
1$
b0111010001000001 (
b000001 )
#450
0$
#451
b1011101000100000 #
1$
b1011101000100000 (
b100000 )
0*
#452
0$
#453
b1101110100010000 #
1$
b1101110100010000 (
b010000 )
#454
0$
#455
b0110111010001000 #
1$
b0110111010001000 (
b001000 )
#456
0$
#457
b1011011101000100 #
1$
b1011011101000100 (
b000100 )
1*
#458
0$
#459
b1101101110100010 #
1$
b1101101110100010 (
b100010 )
0*
#460
0$
#461
b1110110111010001 #
1$
b1110110111010001 (
b010001 )
#462
0$
#463
b1111011011101000 #
1$
b1111011011101000 (
b101000 )
#464
0$
#465
b0111101101110100 #
1$
b0111101101110100 (
b110100 )
#466
0$
#467
b0011110110111010 #
1$
b0011110110111010 (
b111010 )
#468
0$
#469
b0001111011011101 #
1$
b0001111011011101 (
b011101 )
#470
0$
#471
b1000111101101110 #
1$
b1000111101101110 (
b101110 )
#472
0$
#473
b1100011110110111 #
1$
b1100011110110111 (
b110111 )
#474
0$
#475
b1110001111011011 #
1$
b1110001111011011 (
b011011 )
#476
0$
#477
b0111000111101101 #
1$
b0111000111101101 (
b101101 )
#478
0$
#479
b0011100011110110 #
1$
b0011100011110110 (
b110110 )
#480
0$
#481
b0001110001111011 #
1$
b0001110001111011 (
b111011 )
#482
0$
#483
b1000111000111101 #
1$
b1000111000111101 (
b111101 )
#484
0$
#485
b0100011100011110 #
1$
b0100011100011110 (
b011110 )
#486
0$
#487
b0010001110001111 #
1$
b0010001110001111 (
b001111 )
#488
0$
#489
b1001000111000111 #
1$
b1001000111000111 (
b000111 )
1*
#490
0$
#491
b0100100011100011 #
1$
b0100100011100011 (
b100011 )
0*
#492
0$
#493
b0010010001110001 #
1$
b0010010001110001 (
b110001 )
#494
0$
#495
b0001001000111000 #
1$
b0001001000111000 (
b111000 )
#496
0$
#497
b0000100100011100 #
1$
b0000100100011100 (
b011100 )
#498
0$
#499
b0000010010001110 #
1$
b0000010010001110 (
b001110 )
#500
0$
#501
b0000001001000111 #
1$
b0000001001000111 (
b000111 )
1*
#502
0$
#503
b0000000100100011 #
1$
b0000000100100011 (
b100011 )
0*
#504
0$
#505
b0000000010010001 #
1$
b0000000010010001 (
b010001 )
#506
0$
#507
b1000000001001000 #
1$
b1000000001001000 (
b001000 )
#508
0$
#509
b1100000000100100 #
1$
b1100000000100100 (
b100100 )
#510
0$
#511
b0110000000010010 #
1$
b0110000000010010 (
b010010 )
#512
0$
#513
b0011000000001001 #
1$
b0011000000001001 (
b001001 )
#514
0$
#515
b0001100000000100 #
1$
b0001100000000100 (
b000100 )
1*
#516
0$
#517
b1000110000000010 #
1$
b1000110000000010 (
b000010 )
#518
0$
#519
b0100011000000001 #
1$
b0100011000000001 (
b000001 )
#520
0$
#521
b1010001100000000 #
1$
b1010001100000000 (
b000000 )
#522
0$
#523
b0101000110000000 #
1$
b0101000110000000 (
#524
0$
#525
b0010100011000000 #
1$
b0010100011000000 (
#526
0$
#527
b0001010001100000 #
1$
b0001010001100000 (
b100000 )
0*
#528
0$
#529
b1000101000110000 #
1$
b1000101000110000 (
b110000 )
#530
0$
#531
b1100010100011000 #
1$
b1100010100011000 (
b011000 )
#532
0$
#533
b1110001010001100 #
1$
b1110001010001100 (
b001100 )
#534
0$
#535
b0111000101000110 #
1$
b0111000101000110 (
b000110 )
1*
#536
0$
#537
b1011100010100011 #
1$
b1011100010100011 (
b100011 )
0*
#538
0$
#539
b0101110001010001 #
1$
b0101110001010001 (
b010001 )
#540
0$
#541
b1010111000101000 #
1$
b1010111000101000 (
b101000 )
#542
0$
#543
b0101011100010100 #
1$
b0101011100010100 (
b010100 )
#544
0$
#545
b1010101110001010 #
1$
b1010101110001010 (
b001010 )
#546
0$
#547
b1101010111000101 #
1$
b1101010111000101 (
b000101 )
1*
#548
0$
#549
b0110101011100010 #
1$
b0110101011100010 (
b100010 )
0*
#550
0$
#551
b1011010101110001 #
1$
b1011010101110001 (
b110001 )
#552
0$
#553
b0101101010111000 #
1$
b0101101010111000 (
b111000 )
#554
0$
#555
b0010110101011100 #
1$
b0010110101011100 (
b011100 )
#556
0$
#557
b0001011010101110 #
1$
b0001011010101110 (
b101110 )
#558
0$
#559
b1000101101010111 #
1$
b1000101101010111 (
b010111 )
#560
0$
#561
b0100010110101011 #
1$
b0100010110101011 (
b101011 )
#562
0$
#563
b1010001011010101 #
1$
b1010001011010101 (
b010101 )
#564
0$
#565
b0101000101101010 #
1$
b0101000101101010 (
b101010 )
#566
0$
#567
b0010100010110101 #
1$
b0010100010110101 (
b110101 )
#568
0$
#569
b1001010001011010 #
1$
b1001010001011010 (
b011010 )
#570
0$
#571
b1100101000101101 #
1$
b1100101000101101 (
b101101 )
#572
0$
#573
b0110010100010110 #
1$
b0110010100010110 (
b010110 )
#574
0$
#575
b1011001010001011 #
1$
b1011001010001011 (
b001011 )
#576
0$
#577
b0101100101000101 #
1$
b0101100101000101 (
b000101 )
1*
#578
0$
#579
b0010110010100010 #
1$
b0010110010100010 (
b100010 )
0*
#580
0$
#581
b1001011001010001 #
1$
b1001011001010001 (
b010001 )
#582
0$
#583
b1100101100101000 #
1$
b1100101100101000 (
b101000 )
#584
0$
#585
b0110010110010100 #
1$
b0110010110010100 (
b010100 )
#586
0$
#587
b1011001011001010 #
1$
b1011001011001010 (
b001010 )
#588
0$
#589
b1101100101100101 #
1$
b1101100101100101 (
b100101 )
#590
0$
#591
b1110110010110010 #
1$
b1110110010110010 (
b110010 )
#592
0$
#593
b1111011001011001 #
1$
b1111011001011001 (
b011001 )
#594
0$
#595
b0111101100101100 #
1$
b0111101100101100 (
b101100 )
#596
0$
#597
b1011110110010110 #
1$
b1011110110010110 (
b010110 )
#598
0$
#599
b1101111011001011 #
1$
b1101111011001011 (
b001011 )
#600
0$
#601
b0110111101100101 #
1$
b0110111101100101 (
b100101 )
#602
0$
#603
b1011011110110010 #
1$
b1011011110110010 (
b110010 )
#604
0$
#605
b1101101111011001 #
1$
b1101101111011001 (
b011001 )
#606
0$
#607
b0110110111101100 #
1$
b0110110111101100 (
b101100 )
#608
0$
#609
b1011011011110110 #
1$
b1011011011110110 (
b110110 )
#610
0$
#611
b0101101101111011 #
1$
b0101101101111011 (
b111011 )
#612
0$
#613
b1010110110111101 #
1$
b1010110110111101 (
b111101 )
#614
0$
#615
b0101011011011110 #
1$
b0101011011011110 (
b011110 )
#616
0$
#617
b0010101101101111 #
1$
b0010101101101111 (
b101111 )
#618
0$
#619
b0001010110110111 #
1$
b0001010110110111 (
b110111 )
#620
0$
#621
b1000101011011011 #
1$
b1000101011011011 (
b011011 )
#622
0$
#623
b0100010101101101 #
1$
b0100010101101101 (
b101101 )
#624
0$
#625
b0010001010110110 #
1$
b0010001010110110 (
b110110 )
#626
0$
#627
b0001000101011011 #
1$
b0001000101011011 (
b011011 )
#628
0$
#629
b0000100010101101 #
1$
b0000100010101101 (
b101101 )
#630
0$
#631
b0000010001010110 #
1$
b0000010001010110 (
b010110 )
#632
0$
#633
b1000001000101011 #
1$
b1000001000101011 (
b101011 )
#634
0$
#635
b1100000100010101 #
1$
b1100000100010101 (
b010101 )
#636
0$
#637
b0110000010001010 #
1$
b0110000010001010 (
b001010 )
#638
0$
#639
b1011000001000101 #
1$
b1011000001000101 (
b000101 )
1*
#640
0$
#641
b0101100000100010 #
1$
b0101100000100010 (
b100010 )
0*
#642
0$
#643
b1010110000010001 #
1$
b1010110000010001 (
b010001 )
#644
0$
#645
b1101011000001000 #
1$
b1101011000001000 (
b001000 )
#646
0$
#647
b1110101100000100 #
1$
b1110101100000100 (
b000100 )
1*
#648
0$
#649
b1111010110000010 #
1$
b1111010110000010 (
b000010 )
#650
0$
#651
b0111101011000001 #
1$
b0111101011000001 (
b000001 )
#652
0$
#653
b1011110101100000 #
1$
b1011110101100000 (
b100000 )
0*
#654
0$
#655
b1101111010110000 #
1$
b1101111010110000 (
b110000 )
#656
0$
#657
b1110111101011000 #
1$
b1110111101011000 (
b011000 )
#658
0$
#659
b1111011110101100 #
1$
b1111011110101100 (
b101100 )
#660
0$
#661
b1111101111010110 #
1$
b1111101111010110 (
b010110 )
#662
0$
#663
b1111110111101011 #
1$
b1111110111101011 (
b101011 )
#664
0$
#665
b1111111011110101 #
1$
b1111111011110101 (
b110101 )
#666
0$
#667
b1111111101111010 #
1$
b1111111101111010 (
b111010 )
#668
0$
#669
b0111111110111101 #
1$
b0111111110111101 (
b111101 )
#670
0$
#671
b0011111111011110 #
1$
b0011111111011110 (
b011110 )
#672
0$
#673
b0001111111101111 #
1$
b0001111111101111 (
b101111 )
#674
0$
#675
b0000111111110111 #
1$
b0000111111110111 (
b110111 )
#676
0$
#677
b1000011111111011 #
1$
b1000011111111011 (
b111011 )
#678
0$
#679
b1100001111111101 #
1$
b1100001111111101 (
b111101 )
#680
0$
#681
b0110000111111110 #
1$
b0110000111111110 (
b111110 )
#682
0$
#683
b1011000011111111 #
1$
b1011000011111111 (
b111111 )
#684
0$
#685
b0101100001111111 #
1$
b0101100001111111 (
#686
0$
#687
b0010110000111111 #
1$
b0010110000111111 (
#688
0$
#689
b0001011000011111 #
1$
b0001011000011111 (
b011111 )
#690
0$
#691
b1000101100001111 #
1$
b1000101100001111 (
b001111 )
#692
0$
#693
b1100010110000111 #
1$
b1100010110000111 (
b000111 )
1*
#694
0$
#695
b0110001011000011 #
1$
b0110001011000011 (
b000011 )
#696
0$
#697
b1011000101100001 #
1$
b1011000101100001 (
b100001 )
0*
#698
0$
#699
b0101100010110000 #
1$
b0101100010110000 (
b110000 )
#700
0$
#701
b1010110001011000 #
1$
b1010110001011000 (
b011000 )
#702
0$
#703
b1101011000101100 #
1$
b1101011000101100 (
b101100 )
#704
0$
#705
b1110101100010110 #
1$
b1110101100010110 (
b010110 )
#706
0$
#707
b1111010110001011 #
1$
b1111010110001011 (
b001011 )
#708
0$
#709
b0111101011000101 #
1$
b0111101011000101 (
b000101 )
1*
#710
0$
#711
b0011110101100010 #
1$
b0011110101100010 (
b100010 )
0*
#712
0$
#713
b1001111010110001 #
1$
b1001111010110001 (
b110001 )
#714
0$
#715
b0100111101011000 #
1$
b0100111101011000 (
b011000 )
#716
0$
#717
b1010011110101100 #
1$
b1010011110101100 (
b101100 )
#718
0$
#719
b1101001111010110 #
1$
b1101001111010110 (
b010110 )
#720
0$
#721
b1110100111101011 #
1$
b1110100111101011 (
b101011 )
#722
0$
#723
b1111010011110101 #
1$
b1111010011110101 (
b110101 )
#724
0$
#725
b1111101001111010 #
1$
b1111101001111010 (
b111010 )
#726
0$
#727
b0111110100111101 #
1$
b0111110100111101 (
b111101 )
#728
0$
#729
b0011111010011110 #
1$
b0011111010011110 (
b011110 )
#730
0$
#731
b0001111101001111 #
1$
b0001111101001111 (
b001111 )
#732
0$
#733
b1000111110100111 #
1$
b1000111110100111 (
b100111 )
#734
0$
#735
b1100011111010011 #
1$
b1100011111010011 (
b010011 )
#736
0$
#737
b1110001111101001 #
1$
b1110001111101001 (
b101001 )
#738
0$
#739
b1111000111110100 #
1$
b1111000111110100 (
b110100 )
#740
0$
#741
b0111100011111010 #
1$
b0111100011111010 (
b111010 )
#742
0$
#743
b0011110001111101 #
1$
b0011110001111101 (
b111101 )
#744
0$
#745
b0001111000111110 #
1$
b0001111000111110 (
b111110 )
#746
0$
#747
b1000111100011111 #
1$
b1000111100011111 (
b011111 )
#748
0$
#749
b1100011110001111 #
1$
b1100011110001111 (
b001111 )
#750
0$
#751
b1110001111000111 #
1$
b1110001111000111 (
b000111 )
1*
#752
0$
#753
b0111000111100011 #
1$
b0111000111100011 (
b100011 )
0*
#754
0$
#755
b0011100011110001 #
1$
b0011100011110001 (
b110001 )
#756
0$
#757
b0001110001111000 #
1$
b0001110001111000 (
b111000 )
#758
0$
#759
b0000111000111100 #
1$
b0000111000111100 (
b111100 )
#760
0$
#761
b1000011100011110 #
1$
b1000011100011110 (
b011110 )
#762
0$
#763
b0100001110001111 #
1$
b0100001110001111 (
b001111 )
#764
0$
#765
b1010000111000111 #
1$
b1010000111000111 (
b000111 )
1*
#766
0$
#767
b0101000011100011 #
1$
b0101000011100011 (
b100011 )
0*
#768
0$
